# merging-splitting model_id works

    Code
      model_id_split(tbl) %>% dplyr::arrange(rev(model_abbr))
    Output
      # A tibble: 92 x 9
         team_abbr model_abbr forecast_date horizon target        location output_type
         <chr>     <chr>      <date>          <int> <chr>         <chr>    <chr>      
       1 hub       ensemble   2023-05-08          1 wk ahead inc~ US       quantile   
       2 hub       ensemble   2023-05-08          1 wk ahead inc~ US       quantile   
       3 hub       ensemble   2023-05-08          1 wk ahead inc~ US       quantile   
       4 hub       ensemble   2023-05-08          1 wk ahead inc~ US       quantile   
       5 hub       ensemble   2023-05-08          1 wk ahead inc~ US       quantile   
       6 hub       ensemble   2023-05-08          1 wk ahead inc~ US       quantile   
       7 hub       ensemble   2023-05-08          1 wk ahead inc~ US       quantile   
       8 hub       ensemble   2023-05-08          1 wk ahead inc~ US       quantile   
       9 hub       ensemble   2023-05-08          1 wk ahead inc~ US       quantile   
      10 hub       ensemble   2023-05-08          1 wk ahead inc~ US       quantile   
      # i 82 more rows
      # i 2 more variables: output_type_id <chr>, value <dbl>
…
