Connect to model output data. — connect_hub • hubUtils
…
#> 
#> Attaching package: ‘dplyr’
#> The following objects are masked from ‘package:stats’:
#> 
#>     filter, lag
#> The following objects are masked from ‘package:base’:
#> 
#>     intersect, setdiff, setequal, union
hub_con %>%
  filter(
    origin_date == "2022-10-08",
    horizon == 2
  ) %>%
  collect()
#> # A tibble: 69 × 9
#>    origin_date target horizon location output_type output_type_id value model_id
#>    <date>      <chr>    <int> <chr>    <chr>       <chr>          <int> <chr>   
#>  1 2022-10-08  wk in…       2 US       quantile    0.01             135 baseline
#>  2 2022-10-08  wk in…       2 US       quantile    0.025            137 baseline
#>  3 2022-10-08  wk in…       2 US       quantile    0.05             139 baseline
#>  4 2022-10-08  wk in…       2 US       quantile    0.1              140 baseline
#>  5 2022-10-08  wk in…       2 US       quantile    0.15             141 baseline
#>  6 2022-10-08  wk in…       2 US       quantile    0.2              141 baseline
#>  7 2022-10-08  wk in…       2 US       quantile    0.25             142 baseline
#>  8 2022-10-08  wk in…       2 US       quantile    0.3              143 baseline
#>  9 2022-10-08  wk in…       2 US       quantile    0.35             144 baseline
#> 10 2022-10-08  wk in…       2 US       quantile    0.4              145 baseline
#> # ℹ 59 more rows
#> # ℹ 1 more variable: age_group <chr>
mod_out_con %>%
  filter(
    origin_date == "2022-10-08",
    horizon == 2
  ) %>%
  collect()
#> # A tibble: 69 × 8
#>    origin_date target horizon location output_type output_type_id value model_id
#>    <date>      <chr>    <int> <chr>    <chr>                <dbl> <int> <chr>   
#>  1 2022-10-08  wk in…       2 US       quantile             0.01    135 baseline
#>  2 2022-10-08  wk in…       2 US       quantile             0.025   137 baseline
#>  3 2022-10-08  wk in…       2 US       quantile             0.05    139 baseline
#>  4 2022-10-08  wk in…       2 US       quantile             0.1     140 baseline
#>  5 2022-10-08  wk in…       2 US       quantile             0.15    141 baseline
#>  6 2022-10-08  wk in…       2 US       quantile             0.2     141 baseline
#>  7 2022-10-08  wk in…       2 US       quantile             0.25    142 baseline
#>  8 2022-10-08  wk in…       2 US       quantile             0.3     143 baseline
#>  9 2022-10-08  wk in…       2 US       quantile             0.35    144 baseline
#> 10 2022-10-08  wk in…       2 US       quantile             0.4     145 baseline
#> # ℹ 59 more rows
…
