Create expanded grid of valid task ID and output type value combinations — expand_model_out_val_grid • hubUtils
…
    Details

    When a round is set to round_id_from_variable: true,
the value of the task ID from which round IDs are derived (i.e. the task ID
specified in round_id property of config_tasks) is set to the value of the
round_id argument in the returned output.

    Examples

hub_con <- connect_hub(
  system.file("testhubs/flusight", package = "hubUtils")
)
config_tasks <- attr(hub_con, "config_tasks")
expand_model_out_val_grid(config_tasks, round_id = "2023-01-02")
#> # A tibble: 3,132 × 6
#>    forecast_date target              horizon location output_type output_type_id
#>    <date>        <chr>                 <int> <chr>    <chr>       <chr>         
#>  1 2023-01-02    wk flu hosp rate c…       2 US       pmf         large_decrease
#>  2 2023-01-02    wk flu hosp rate c…       1 US       pmf         large_decrease
#>  3 2023-01-02    wk flu hosp rate c…       2 01       pmf         large_decrease
#>  4 2023-01-02    wk flu hosp rate c…       1 01       pmf         large_decrease
#>  5 2023-01-02    wk flu hosp rate c…       2 02       pmf         large_decrease
#>  6 2023-01-02    wk flu hosp rate c…       1 02       pmf         large_decrease
#>  7 2023-01-02    wk flu hosp rate c…       2 04       pmf         large_decrease
#>  8 2023-01-02    wk flu hosp rate c…       1 04       pmf         large_decrease
#>  9 2023-01-02    wk flu hosp rate c…       2 05       pmf         large_decrease
#> 10 2023-01-02    wk flu hosp rate c…       1 05       pmf         large_decrease
#> # ℹ 3,122 more rows
expand_model_out_val_grid(
  config_tasks,
  round_id = "2023-01-02",
  required_vals_only = TRUE
)
#> # A tibble: 28 × 5
#>    forecast_date horizon location output_type output_type_id
#>    <date>          <int> <chr>    <chr>       <chr>         
#>  1 2023-01-02          2 US       pmf         large_decrease
#>  2 2023-01-02          2 US       pmf         decrease      
#>  3 2023-01-02          2 US       pmf         stable        
#>  4 2023-01-02          2 US       pmf         increase      
#>  5 2023-01-02          2 US       pmf         large_increase
#>  6 2023-01-02          2 US       quantile    0.01          
#>  7 2023-01-02          2 US       quantile    0.025         
#>  8 2023-01-02          2 US       quantile    0.05          
#>  9 2023-01-02          2 US       quantile    0.1           
#> 10 2023-01-02          2 US       quantile    0.15          
#> # ℹ 18 more rows
# Specifying a round in a hub with multiple round configurations.
hub_con <- connect_hub(
  system.file("testhubs/simple", package = "hubUtils")
)
config_tasks <- attr(hub_con, "config_tasks")
expand_model_out_val_grid(config_tasks, round_id = "2022-10-01")
#> # A tibble: 5,184 × 6
#>    origin_date target          horizon location output_type output_type_id
#>    <date>      <chr>             <int> <chr>    <chr>                <dbl>
#>  1 2022-10-01  wk inc flu hosp       1 US       mean                    NA
#>  2 2022-10-01  wk inc flu hosp       2 US       mean                    NA
#>  3 2022-10-01  wk inc flu hosp       3 US       mean                    NA
#>  4 2022-10-01  wk inc flu hosp       4 US       mean                    NA
#>  5 2022-10-01  wk inc flu hosp       1 01       mean                    NA
#>  6 2022-10-01  wk inc flu hosp       2 01       mean                    NA
#>  7 2022-10-01  wk inc flu hosp       3 01       mean                    NA
#>  8 2022-10-01  wk inc flu hosp       4 01       mean                    NA
#>  9 2022-10-01  wk inc flu hosp       1 02       mean                    NA
#> 10 2022-10-01  wk inc flu hosp       2 02       mean                    NA
#> # ℹ 5,174 more rows
# Later round_id maps to round config that includes additional task ID 'age_group'.
expand_model_out_val_grid(config_tasks, round_id = "2022-10-29")
#> # A tibble: 25,920 × 7
#>    origin_date target      horizon location age_group output_type output_type_id
#>    <date>      <chr>         <int> <chr>    <chr>     <chr>                <dbl>
#>  1 2022-10-29  wk inc flu…       1 US       65+       mean                    NA
#>  2 2022-10-29  wk inc flu…       2 US       65+       mean                    NA
#>  3 2022-10-29  wk inc flu…       3 US       65+       mean                    NA
#>  4 2022-10-29  wk inc flu…       4 US       65+       mean                    NA
#>  5 2022-10-29  wk inc flu…       1 01       65+       mean                    NA
#>  6 2022-10-29  wk inc flu…       2 01       65+       mean                    NA
#>  7 2022-10-29  wk inc flu…       3 01       65+       mean                    NA
#>  8 2022-10-29  wk inc flu…       4 01       65+       mean                    NA
#>  9 2022-10-29  wk inc flu…       1 02       65+       mean                    NA
#> 10 2022-10-29  wk inc flu…       2 02       65+       mean                    NA
#> # ℹ 25,910 more rows
# Coerce all columns to character
expand_model_out_val_grid(config_tasks,
  round_id = "2022-10-29",
  all_character = TRUE
)
#> # A tibble: 25,920 × 7
#>    origin_date target      horizon location age_group output_type output_type_id
#>    <chr>       <chr>       <chr>   <chr>    <chr>     <chr>       <chr>         
#>  1 2022-10-29  wk inc flu… 1       US       65+       mean        NA            
#>  2 2022-10-29  wk inc flu… 2       US       65+       mean        NA            
#>  3 2022-10-29  wk inc flu… 3       US       65+       mean        NA            
#>  4 2022-10-29  wk inc flu… 4       US       65+       mean        NA            
#>  5 2022-10-29  wk inc flu… 1       01       65+       mean        NA            
#>  6 2022-10-29  wk inc flu… 2       01       65+       mean        NA            
#>  7 2022-10-29  wk inc flu… 3       01       65+       mean        NA            
#>  8 2022-10-29  wk inc flu… 4       01       65+       mean        NA            
#>  9 2022-10-29  wk inc flu… 1       02       65+       mean        NA            
#> 10 2022-10-29  wk inc flu… 2       02       65+       mean        NA            
#> # ℹ 25,910 more rows
…
