Accessing data from a hub • hubUtils
…
To access data from a hub connection you can use dplyr verbs and
construct querying pipelines.

hub_con %>%
    filter(output_type == "quantile", location == "US") %>%
    collect()
#> # A tibble: 276 × 8
#>    forecast_date horizon target        location output_type output_type_id value
#>    <date>          <int> <chr>         <chr>    <chr>       <chr>          <dbl>
#>  1 2023-04-24          1 wk ahead inc… US       quantile    0.01               0
#>  2 2023-04-24          1 wk ahead inc… US       quantile    0.025              0
#>  3 2023-04-24          1 wk ahead inc… US       quantile    0.05               0
#>  4 2023-04-24          1 wk ahead inc… US       quantile    0.1              281
#>  5 2023-04-24          1 wk ahead inc… US       quantile    0.15             600
#>  6 2023-04-24          1 wk ahead inc… US       quantile    0.2              717
#>  7 2023-04-24          1 wk ahead inc… US       quantile    0.25             817
#>  8 2023-04-24          1 wk ahead inc… US       quantile    0.3              877
#>  9 2023-04-24          1 wk ahead inc… US       quantile    0.35             913
#> 10 2023-04-24          1 wk ahead inc… US       quantile    0.4              965
#> # ℹ 266 more rows
#> # ℹ 1 more variable: model_id <chr>
…
This doesn’t work however as arrow does not have an
equivalent max method for Date[32] data
types.

In such a situation, you could collect after applying the first
filtering level which does work for arrow and then finish the filtering
on the in-memory data returned by collect.

hub_con %>%
    filter(output_type == "quantile", location == "US") %>%
    collect() %>%
    filter(forecast_date == max(forecast_date)) 
#> # A tibble: 92 × 8
#>    forecast_date horizon target        location output_type output_type_id value
#>    <date>          <int> <chr>         <chr>    <chr>       <chr>          <dbl>
#>  1 2023-05-08          1 wk ahead inc… US       quantile    0.01               0
#>  2 2023-05-08          1 wk ahead inc… US       quantile    0.025              0
#>  3 2023-05-08          1 wk ahead inc… US       quantile    0.05               0
#>  4 2023-05-08          1 wk ahead inc… US       quantile    0.1              231
#>  5 2023-05-08          1 wk ahead inc… US       quantile    0.15             517
#>  6 2023-05-08          1 wk ahead inc… US       quantile    0.2              637
#>  7 2023-05-08          1 wk ahead inc… US       quantile    0.25             741
#>  8 2023-05-08          1 wk ahead inc… US       quantile    0.3              796
#>  9 2023-05-08          1 wk ahead inc… US       quantile    0.35             847
#> 10 2023-05-08          1 wk ahead inc… US       quantile    0.4              876
#> # ℹ 82 more rows
#> # ℹ 1 more variable: model_id <chr>
…
get the last forecast date available for the filtered subset.

use the last forecast date in the filtering query.

last_forecast <- hub_con %>%
    filter(output_type == "quantile", location == "US") %>%
  pull(forecast_date, as_vector = TRUE) %>%
  max()

hub_con %>%
    filter(output_type == "quantile", location == "US",
           forecast_date == last_forecast) %>%
    collect()
#> # A tibble: 92 × 8
#>    forecast_date horizon target        location output_type output_type_id value
#>    <date>          <int> <chr>         <chr>    <chr>       <chr>          <dbl>
#>  1 2023-05-08          1 wk ahead inc… US       quantile    0.01            368.
#>  2 2023-05-08          1 wk ahead inc… US       quantile    0.025           428.
#>  3 2023-05-08          1 wk ahead inc… US       quantile    0.05            500.
#>  4 2023-05-08          1 wk ahead inc… US       quantile    0.1             569 
#>  5 2023-05-08          1 wk ahead inc… US       quantile    0.15            630.
#>  6 2023-05-08          1 wk ahead inc… US       quantile    0.2             683 
#>  7 2023-05-08          1 wk ahead inc… US       quantile    0.25            728.
#>  8 2023-05-08          1 wk ahead inc… US       quantile    0.3             769 
#>  9 2023-05-08          1 wk ahead inc… US       quantile    0.35            802.
#> 10 2023-05-08          1 wk ahead inc… US       quantile    0.4             845 
#> # ℹ 82 more rows
#> # ℹ 1 more variable: model_id <chr>
…
mod_out_con %>%
    filter(output_type == "quantile", location == "US") %>%
    collect()
#> # A tibble: 138 × 8
#>    origin_date target horizon location output_type output_type_id value model_id
#>    <date>      <chr>    <int> <chr>    <chr>                <dbl> <int> <chr>   
#>  1 2022-10-01  wk in…       1 US       quantile             0.01    135 hub-bas…
#>  2 2022-10-01  wk in…       1 US       quantile             0.025   137 hub-bas…
#>  3 2022-10-01  wk in…       1 US       quantile             0.05    139 hub-bas…
#>  4 2022-10-01  wk in…       1 US       quantile             0.1     140 hub-bas…
#>  5 2022-10-01  wk in…       1 US       quantile             0.15    141 hub-bas…
#>  6 2022-10-01  wk in…       1 US       quantile             0.2     141 hub-bas…
#>  7 2022-10-01  wk in…       1 US       quantile             0.25    142 hub-bas…
#>  8 2022-10-01  wk in…       1 US       quantile             0.3     143 hub-bas…
#>  9 2022-10-01  wk in…       1 US       quantile             0.35    144 hub-bas…
#> 10 2022-10-01  wk in…       1 US       quantile             0.4     145 hub-bas…
#> # ℹ 128 more rows
…
